{
  "items":[
    {
      "icon": "facebook",
      "iconClass": "facebook",
      "url": "#"
    },
    {
      "icon": "facebook-alt",
      "iconClass": "facebook-alt",
      "url": "#"
    },
    {
      "icon": "instagram",
      "iconClass": "instagram",
      "url": "#"
    },
    {
      "icon": "instagram-alt",
      "iconClass": "instagram-alt",
      "url": "#"
    },
    {
      "icon": "sliders-h",
      "iconClass": "sliders-h",
      "url": "#"
    },
    {
      "icon": "twitter",
      "iconClass": "twitter",
      "url": "#"
    },
    {
      "icon": "twitter-alt",
      "iconClass": "twitter-alt",
      "url": "#"
    },
    {
      "icon": "linkedin",
      "iconClass": "linkedin",
      "url": "#"
    },
    {
      "icon": "linkedin-alt",
      "iconClass": "linkedin-alt",
      "url": "#"
    },
    {
      "icon": "youtube",
      "iconClass": "youtube",
      "url": "#"
    },
    {
      "icon": "youtube-alt",
      "iconClass": "youtube-alt",
      "url": "#"
    },
    {
      "icon": "user",
      "iconClass": "user",
      "url": "#"
    },
    {
      "icon": "user-maroon",
      "iconClass": "user-maroon",
      "url": "#"
    },
    {
      "icon": "bars",
      "iconClass": "bars",
      "url": "#"
    },
    {
      "icon": "menu-search",
      "iconClass": "menu-search",
      "url": "#"
    },
    {
      "icon": "caret-down",
      "iconClass": "caret-down",
      "url": "#"
    },
    {
      "icon": "caret-down-black",
      "iconClass": "caret-down-black",
      "url": "#"
    },
    {
      "icon": "caret-down-gray",
      "iconClass": "caret-down-gray",
      "url": "#"
    },
    {
      "icon": "caret-up",
      "iconClass": "caret-up",
      "url": "#"
    },
    {
      "icon": "caret-left",
      "iconClass": "caret-left",
      "url": "#"
    },
    {
      "icon": "caret-right",
      "iconClass": "caret-right",
      "url": "#"
    },
    {
      "icon": "compass",
      "iconClass": "compass",
      "url": "#"
    },
    {
      "icon": "compass-maroon",
      "iconClass": "compass-maroon",
      "url": "#"
    },
    {
      "icon": "external-link-alt",
      "iconClass": "external-link-alt",
      "url": "#"
    },
    {
      "icon": "file-alt",
      "iconClass": "file-alt",
      "url": "#"
    },
    {
      "icon": "file-archive",
      "iconClass": "file-archive",
      "url": "#"
    },
    {
      "icon": "file-audio",
      "iconClass": "file-audio",
      "url": "#"
    },
    {
      "icon": "file-code",
      "iconClass": "file-code",
      "url": "#"
    },
    {
      "icon": "file-excel",
      "iconClass": "file-excel",
      "url": "#"
    },
    {
      "icon": "file-image",
      "iconClass": "file-image",
      "url": "#"
    },
    {
      "icon": "file-pdf",
      "iconClass": "file-pdf",
      "url": "#"
    },
    {
      "icon": "file-powerpoint",
      "iconClass": "file-powerpoint",
      "url": "#"
    },
    {
      "icon": "file-video",
      "iconClass": "file-video",
      "url": "#"
    },
    {
      "icon": "play-circle",
      "iconClass": "play-circle",
      "url": "#"
    },
    {
      "icon": "file-word",
      "iconClass": "file-word",
      "url": "#"
    },
    {
      "icon": "file",
      "iconClass": "file",
      "url": "#"
    }
  ]
}
