{
  "image": "/advancement/themes/custom/uma_daris/dist/images/2016_Spring_Campus_0621_1_EDITED_bw.jpg",
  "summary_text": "UMass Amherst is building a legacy dedicated to providing students from around the world with access to an exceptional education. As our graduates leave us to enter into a new world of possibilities, their passion and revolutionary spirit guide them toward changing things for the better however they can.",
  "button": {
    "text": "",
    "url": "",
    "modifier": ""
  },
  "modifier": "page-summary-image--without-button"
}
