{
  "heading": {
    "heading_level": "2",
    "modifier": "update__heading",
    "title": "Advancement Update",
    "url": ""
  },
  "pub_date": "Date string here",
  "summary_text": "<p>Lorem ipsum dolor sit amet, consectetur adipiscing elit, sed do eiusmod tempor incididunt ut labore et dolore magna aliqua. Lacus vel facilisis volutpat est. Fermentum et sollicitudin ac orci phasellus egestas. Cursus euismod quis viverra nibh cras pulvinar mattis nunc sed. Lacinia at quis risus sed vulputate odio ut enim blandit. Sollicitudin aliquam ultrices sagittis orci a scelerisque.</p>",
  "button": {
    "text": "Read More",
    "url": "#",
    "modifier": ""
  },
  "modifier": ""
}
