{
  "image": "<img src='/advancement/themes/custom/uma_daris/dist/images/OldChapel_690x460_opt3_color.jpg' alt='' />",
  "tags": [
    {
      "name": "Annual Giving",
      "url": ""
    },
    {
      "name": "UMass Magazine",
      "url": ""
    }
  ],
  "heading": {
    "heading_level": "4",
    "modifier": "card__heading",
    "title": "What's the plan?",
    "url": "#"
  },
  "summary_text": "<p>Get your first look at the Spring 2021 semester reopening.</p>",
  "modifier": ""
}
