{
  "image": "<img src='/advancement/themes/custom/uma_daris/dist/images/I_love_UMass_opt1_690x460_color.jpg' alt='' />",
  "tags": [
    {
      "name": "UMass Magazine",
      "url": ""
    },
    {
      "name": "",
      "url": ""
    }
  ],
  "heading": {
    "heading_level": "3",
    "modifier": "card__heading",
    "title": "<cite>UMass Magazine</cite> winter issue out now",
    "url": "#"
  },
  "summary_text": "",
  "modifier": "card--wide"
}
