{
  "image": "",
  "heading": {
    "heading_level": "1",
    "modifier": "",
    "line_1": "Alumni Relations",
    "line_2": "Alumni and Constituent Programs",
    "subtitle": "",
    "url": ""
  },
  "modifier": "page-title-image--without-image"
}
